What the Package Does (One Line, Title Case) • tilt.eu.taxonomy
…
Matching Ecoinvent activities (with NACE) to EU Taxonomy activities

NACE codes are used to match Ecoinvent activities and EU Taxonomy activities. Both the tables eu_tax_activities_all_with_keywords and ecoinvent_activities_with_nace have the NACE codes. After matching Ecoinvent activities and EU Taxonomy activities, there is a one-to-many relationship between taxonomy activities and Ecoinvent activities respectively. This means that a single taxonomy activity is related to multiple ecoinvent activities.

ecoinvent_activities_eu_tax_activities <- ecoinvent_activities_eu_tax_activities(ecoinvent_activities_with_nace, eu_tax_activities_all_with_keywords)
ecoinvent_activities_eu_tax_activities
#> # A tibble: 253 × 8
#>    ep_product           activity_uuid_product_uuid                                                ecoinvent_activity_name                           isic_4digit NACE   tax_activity                  tax_activity_description                                                          tax_activity_keywords
#>    <chr>                <chr>                                                                     <chr>                                             <chr>       <chr>  <chr>                         <chr>                                                                             <chr>                
#>  1 ptfe sealing gaskets ff8730f0-d92e-54ed-9a8e-09fc7920cf87_888e7520-545c-4857-a07a-094575afe6ca sealing tape production, aluminium/PE, 50 mm wide 2220        C22.21 <NA>                          <NA>                                                                              <NA>                 
#>  2 ptfe sealing gaskets ff8730f0-d92e-54ed-9a8e-09fc7920cf87_888e7520-545c-4857-a07a-094575afe6ca sealing tape production, aluminium/PE, 50 mm wide 2220        C22.22 <NA>                          <NA>                                                                              <NA>                 
#>  3 ptfe sealing gaskets ff8730f0-d92e-54ed-9a8e-09fc7920cf87_888e7520-545c-4857-a07a-094575afe6ca sealing tape production, aluminium/PE, 50 mm wide 2220        C22.23 <NA>                          <NA>                                                                              <NA>                 
#>  4 ptfe sealing gaskets ff8730f0-d92e-54ed-9a8e-09fc7920cf87_888e7520-545c-4857-a07a-094575afe6ca sealing tape production, aluminium/PE, 50 mm wide 2220        C22.29 <NA>                          <NA>                                                                              <NA>                 
#>  5 bending              77ac10a7-6b05-5e27-8e5c-4358517b1ef6_8aa5cd19-c1ca-49f1-8efb-c7a28f5ad71f section bar rolling, steel                        2410        C24.10 Manufacture of iron and steel Manufacture of iron and steel. The economic activities in this category could be… iron; steel; ferrous…
#>  6 bending              77ac10a7-6b05-5e27-8e5c-4358517b1ef6_8aa5cd19-c1ca-49f1-8efb-c7a28f5ad71f section bar rolling, steel                        2410        C24.20 Manufacture of iron and steel Manufacture of iron and steel. The economic activities in this category could be… iron; steel; ferrous…
#>  7 bending              77ac10a7-6b05-5e27-8e5c-4358517b1ef6_8aa5cd19-c1ca-49f1-8efb-c7a28f5ad71f section bar rolling, steel                        2410        C24.31 Manufacture of iron and steel Manufacture of iron and steel. The economic activities in this category could be… iron; steel; ferrous…
#>  8 bending              77ac10a7-6b05-5e27-8e5c-4358517b1ef6_8aa5cd19-c1ca-49f1-8efb-c7a28f5ad71f section bar rolling, steel                        2410        C24.32 Manufacture of iron and steel Manufacture of iron and steel. The economic activities in this category could be… iron; steel; ferrous…
#>  9 bending              77ac10a7-6b05-5e27-8e5c-4358517b1ef6_8aa5cd19-c1ca-49f1-8efb-c7a28f5ad71f section bar rolling, steel                        2410        C24.33 Manufacture of iron and steel Manufacture of iron and steel. The economic activities in this category could be… iron; steel; ferrous…
#> 10 bending              77ac10a7-6b05-5e27-8e5c-4358517b1ef6_8aa5cd19-c1ca-49f1-8efb-c7a28f5ad71f section bar rolling, steel                        2410        C24.34 Manufacture of iron and steel Manufacture of iron and steel. The economic activities in this category could be… iron; steel; ferrous…
#> # ℹ 243 more rows
…
