…
## Mapping Ecoinvent activities (with NACE) to EU Taxonomy activities

NACE codes are used to map Ecoinvent activities and EU Taxonomy
activities. There is a one-to-many mapping between taxonomy activities
and Ecoinvent activities. This means that a single taxonomy activity can
be mapped to multiple ecoinvent activities.

``` r
ecoinvent_activities_eu_tax_activities <- ecoinvent_activities_eu_tax_activities(ecoinvent_activities_with_nace, eu_tax_activities_all_with_keywords)
ecoinvent_activities_eu_tax_activities
#> # A tibble: 253 × 7
#>    ep_product           ecoinvent_activity_name                           isic_4digit NACE   tax_activity                  tax_activity_description                                                                                                                                    tax_activity_keywords
#>    <chr>                <chr>                                             <chr>       <chr>  <chr>                         <chr>                                                                                                                                                       <chr>                
#>  1 ptfe sealing gaskets sealing tape production, aluminium/PE, 50 mm wide 2220        C22.21 <NA>                          <NA>                                                                                                                                                        <NA>                 
#>  2 ptfe sealing gaskets sealing tape production, aluminium/PE, 50 mm wide 2220        C22.22 <NA>                          <NA>                                                                                                                                                        <NA>                 
#>  3 ptfe sealing gaskets sealing tape production, aluminium/PE, 50 mm wide 2220        C22.23 <NA>                          <NA>                                                                                                                                                        <NA>                 
#>  4 ptfe sealing gaskets sealing tape production, aluminium/PE, 50 mm wide 2220        C22.29 <NA>                          <NA>                                                                                                                                                        <NA>                 
#>  5 bending              section bar rolling, steel                        2410        C24.10 Manufacture of iron and steel Manufacture of iron and steel. The economic activities in this category could be associated with several NACE codes, in particular C24.10, C24.20, C24.31,… iron; steel; ferrous…
#>  6 bending              section bar rolling, steel                        2410        C24.20 Manufacture of iron and steel Manufacture of iron and steel. The economic activities in this category could be associated with several NACE codes, in particular C24.10, C24.20, C24.31,… iron; steel; ferrous…
#>  7 bending              section bar rolling, steel                        2410        C24.31 Manufacture of iron and steel Manufacture of iron and steel. The economic activities in this category could be associated with several NACE codes, in particular C24.10, C24.20, C24.31,… iron; steel; ferrous…
#>  8 bending              section bar rolling, steel                        2410        C24.32 Manufacture of iron and steel Manufacture of iron and steel. The economic activities in this category could be associated with several NACE codes, in particular C24.10, C24.20, C24.31,… iron; steel; ferrous…
#>  9 bending              section bar rolling, steel                        2410        C24.33 Manufacture of iron and steel Manufacture of iron and steel. The economic activities in this category could be associated with several NACE codes, in particular C24.10, C24.20, C24.31,… iron; steel; ferrous…
#> 10 bending              section bar rolling, steel                        2410        C24.34 Manufacture of iron and steel Manufacture of iron and steel. The economic activities in this category could be associated with several NACE codes, in particular C24.10, C24.20, C24.31,… iron; steel; ferrous…
#> # ℹ 243 more rows
```
…
