Mapping Ecoinvent activities (with NACE) to EU Taxonomy activities — ecoinvent_activities_eu_tax_activities • tilt.eu.taxonomy
…
eu_tax_activities_all <- eu_tax_activities_all(
  eu_tax_climate_mitigation, eu_tax_climate_adaptation,
  eu_tax_water_protection, eu_tax_circular_economy_transition,
  eu_tax_pollution_prevention, eu_tax_biodiversity_protection
)
eu_tax_activities_all_with_keywords <- eu_tax_activities_all_with_keywords(
  eu_tax_activities_all, eu_tax_activities_keywords
)

output <- ecoinvent_activities_eu_tax_activities(
  ecoinvent_activities_with_nace,
  eu_tax_activities_all_with_keywords
)
output
#> # A tibble: 651 × 11
#>    companies_id           company_name country ep_product activity_uuid_produc…¹
#>    <chr>                  <chr>        <chr>   <chr>      <chr>                 
#>  1 ajtm-joints-detanchei… ajtm - join… france  ptfe seal… ff8730f0-d92e-54ed-9a…
#>  2 ajtm-joints-detanchei… ajtm - join… france  ptfe seal… ff8730f0-d92e-54ed-9a…
#>  3 ajtm-joints-detanchei… ajtm - join… france  ptfe seal… ff8730f0-d92e-54ed-9a…
#>  4 ajtm-joints-detanchei… ajtm - join… france  ptfe seal… ff8730f0-d92e-54ed-9a…
#>  5 ajtm-joints-detanchei… ajtm - join… france  bending    77ac10a7-6b05-5e27-8e…
#>  6 ajtm-joints-detanchei… ajtm - join… france  bending    77ac10a7-6b05-5e27-8e…
#>  7 ajtm-joints-detanchei… ajtm - join… france  bending    77ac10a7-6b05-5e27-8e…
#>  8 ajtm-joints-detanchei… ajtm - join… france  bending    77ac10a7-6b05-5e27-8e…
#>  9 ajtm-joints-detanchei… ajtm - join… france  bending    77ac10a7-6b05-5e27-8e…
#> 10 ajtm-joints-detanchei… ajtm - join… france  bending    77ac10a7-6b05-5e27-8e…
#> # ℹ 641 more rows
#> # ℹ abbreviated name: ¹​activity_uuid_product_uuid
#> # ℹ 6 more variables: ecoinvent_activity_name <chr>, isic_4digit <chr>,
#> #   NACE <chr>, tax_activity <chr>, tax_activity_description <chr>,
#> #   tax_activity_keywords <chr>
…
