Outputs company-level columns of ep_companies_ei_activities — ep_companies_ei_activities_at_company_level • tilt.eu.taxonomy
…
    Arguments

data
ep_companies_ei_activities

    Value

    A dataframe

    Examples

output <- ep_companies_ei_activities_at_company_level(ep_companies_ei_activities)
output
#> # A tibble: 123 × 5
#>    companies_id           company_name country ep_product activity_uuid_produc…¹
#>    <chr>                  <chr>        <chr>   <chr>      <chr>                 
#>  1 ajtm-joints-detanchei… ajtm - join… france  ptfe seal… ff8730f0-d92e-54ed-9a…
#>  2 ajtm-joints-detanchei… ajtm - join… france  bending    77ac10a7-6b05-5e27-8e…
#>  3 ajtm-joints-detanchei… ajtm - join… france  cutting    53dae40f-2bf3-5063-9a…
#>  4 cades-penedes_0000000… cades pened… spain   ethyl alc… 46ef86a4-d9d5-5185-a2…
#>  5 cades-penedes_0000000… cades pened… spain   phenols    9f3b74f9-c86d-5866-99…
#>  6 cades-penedes_0000000… cades pened… spain   derivativ… 9917da7b-013f-5175-84…
#>  7 cades-penedes_0000000… cades pened… spain   tartaric … b1cde6f9-fe23-5654-b1…
#>  8 carlemsaph_0000000547… carlemsaph   france  pharmaceu… 5c5d1cdb-22df-5e58-a3…
#>  9 carlemsaph_0000000547… carlemsaph   france  cosmetic   67d97fc9-5854-547e-8c…
#> 10 carlemsaph_0000000547… carlemsaph   france  natural i… 82b0b82a-5afb-5078-ac…
#> # ℹ 113 more rows
#> # ℹ abbreviated name: ¹​activity_uuid_product_uuid
…
