Calculate all EU Taxonomy activities — eu_tax_activities_all • tilt.eu.taxonomy
…
    Value

    A dataframe

    Examples

output <- eu_tax_activities_all(
  eu_tax_climate_mitigation, eu_tax_climate_adaptation,
  eu_tax_water_protection, eu_tax_circular_economy_transition,
  eu_tax_pollution_prevention, eu_tax_biodiversity_protection
)
output
#> # A tibble: 630 × 3
#>    tax_activity                                     nace  tax_activity_descrip…¹
#>    <chr>                                            <chr> <chr>                 
#>  1 Afforestation                                    A2    Establishment of fore…
#>  2 Rehabilitation and restoration of forests, incl… A2    Rehabilitation and re…
#>  3 Forest management                                A2    Forest management as …
#>  4 Conservation forestry                            A2    Forest management act…
#>  5 Manufacture of renewable energy technologies     C25   Manufacture of renewa…
#>  6 Manufacture of renewable energy technologies     C27   Manufacture of renewa…
#>  7 Manufacture of renewable energy technologies     C28   Manufacture of renewa…
#>  8 Manufacture of equipment for the production and… C25   Manufacture of equipm…
#>  9 Manufacture of equipment for the production and… C27   Manufacture of equipm…
#> 10 Manufacture of equipment for the production and… C28   Manufacture of equipm…
#> # ℹ 620 more rows
#> # ℹ abbreviated name: ¹​tax_activity_description
…
